{
  "extends": "../../../tslint.json",
  "rules": {
    "directive-selector": [true, "attribute", "tour-of-heroes", "camelCase"],
    "component-selector": [true, "element", "tour-of-heroes", "kebab-case"]
  }
}
